  0.12950723591177246     
  0.71707315797471327     
  0.90928377046164544     
  0.92995215239308493     
  0.93766168690596408     
  0.92476439286232248     
  0.95181556116258670     
  0.95316983423668999     
  0.95381001934716747     
  0.89271131446098906     
  0.95322307641828741     
